Peril,PC|F,A,P,M,V,S
Theft,1|1,1,1,1,1,1
Theft,2|1,1,1,1,1,1
Theft,3|1,1,1,1,1,1
Theft,4|1,1,1,1,1,1
Theft,5|1,1,1,1,1,1
Theft,6|1,1,1,1,1,1
Theft,7|1,1,1,1,1,1
Theft,8|1,1,1,1,1,1
Theft,9|1,1,1,1,1,1
Theft,10|1,1,1,1,1,1
AOP,1|1.11,1.11,1.11,1,1,0.85
AOP,2|1.11,1.11,1.11,1,1,0.85
AOP,3|1.11,1.11,1.11,1,1,0.85
AOP,4|1.11,1.11,1.11,1,1,0.85
AOP,5|1.11,1.11,1.11,1,1,0.85
AOP,6|1.11,1.11,1.11,1,1,0.85
AOP,7|1.33,1.33,1.33,1,1,0.85
AOP,8|1.33,1.33,1.33,1,1,0.85
AOP,9|1.78,1.78,1.78,1.44,1.44,1.224
AOP,10|2.22,2.22,2.22,1.67,1.67,1.42
Hurr,1|1.11,1.11,1.11,1,1,0.85
Hurr,2|1.11,1.11,1.11,1,1,0.85
Hurr,3|1.11,1.11,1.11,1,1,0.85
Hurr,4|1.11,1.11,1.11,1,1,0.85
Hurr,5|1.11,1.11,1.11,1,1,0.85
Hurr,6|1.11,1.11,1.11,1,1,0.85
Hurr,7|1.33,1.33,1.33,1,1,0.85
Hurr,8|1.33,1.33,1.33,1,1,0.85
Hurr,9|1.78,1.78,1.78,1.44,1.44,1.224
Hurr,10|2.22,2.22,2.22,1.67,1.67,1.42
OW,1|1.11,1.11,1.11,1,1,0.85
OW,2|1.11,1.11,1.11,1,1,0.85
OW,3|1.11,1.11,1.11,1,1,0.85
OW,4|1.11,1.11,1.11,1,1,0.85
OW,5|1.11,1.11,1.11,1,1,0.85
OW,6|1.11,1.11,1.11,1,1,0.85
OW,7|1.33,1.33,1.33,1,1,0.85
OW,8|1.33,1.33,1.33,1,1,0.85
OW,9|1.78,1.78,1.78,1.44,1.44,1.224
OW,10|2.22,2.22,2.22,1.67,1.67,1.42
